top_test.vcd
$date
	Thu Jul 13 01:57:37 2017
$end
$version
	Icarus Verilog
$end
$timescale
	1ps
$end
$scope module test $end
$scope module top0 $end
$var wire 3 ! alu_op [2:0] $end
$var wire 45 " alu_out [44:0] $end
$var wire 1 # clk $end
$var wire 45 $ dec_data [44:0] $end
$var wire 6 % dst [5:0] $end
$var wire 45 & mem_data [44:0] $end
$var wire 1 ' mem_we $end
$var wire 11 ( op [10:0] $end
$var wire 8 ) pc_in [7:0] $end
$var wire 8 * pc_out [7:0] $end
$var wire 1 + pc_we $end
$var wire 45 , reg_data0 [44:0] $end
$var wire 45 - reg_data1 [44:0] $end
$var wire 1 . reg_we $end
$var wire 1 / rst_n $end
$var wire 1 0 sel1 $end
$var wire 45 1 sel1_out [44:0] $end
$var wire 1 2 sel2 $end
$var wire 45 3 sel2_out [44:0] $end
$var wire 6 4 src0 [5:0] $end
$var wire 6 5 src1 [5:0] $end
$var wire 1 6 zf $end
$var wire 1 7 zf_out $end
$scope module sl $end
$var wire 45 8 in0 [44:0] $end
$var wire 45 9 in1 [44:0] $end
$var wire 45 : out [44:0] $end
$var wire 1 0 sel $end
$upscope $end
$scope module s2 $end
$var wire 45 ; in0 [44:0] $end
$var wire 45 < in1 [44:0] $end
$var wire 45 = out [44:0] $end
$var wire 1 2 sel $end
$upscope $end
$scope module r0 $end
$var wire 45 > KOTAE [44:0] $end
$var wire 45 ? MONDAI [44:0] $end
$var wire 1 # clk $end
$var wire 45 @ data [44:0] $end
$var wire 6 A dst [5:0] $end
$var wire 45 B outa [44:0] $end
$var wire 45 C outb [44:0] $end
$var wire 1 / rst_n $end
$var wire 6 D src0 [5:0] $end
$var wire 6 E src1 [5:0] $end
$var wire 1 . we $end
$upscope $end
$scope module a0 $end
$var wire 45 F in0 [44:0] $end
$var wire 45 G in1 [44:0] $end
$var wire 3 H op [2:0] $end
$var reg 45 I out [44:0] $end
$var reg 1 J zf $end
$upscope $end
$scope module mem0 $end
$var wire 45 K addr [44:0] $end
$var wire 1 # clk $end
$var wire 45 L in [44:0] $end
$var wire 45 M mem0 [44:0] $end
$var wire 45 N mem1 [44:0] $end
$var wire 45 O mem2 [44:0] $end
$var wire 45 P mem3 [44:0] $end
$var wire 45 Q mem4 [44:0] $end
$var wire 45 R mem5 [44:0] $end
$var wire 45 S mem6 [44:0] $end
$var wire 45 T mem7 [44:0] $end
$var wire 45 U out [44:0] $end
$var wire 1 / rst_n $end
$var wire 1 ' we $end
$upscope $end
$scope module pc0 $end
$var wire 1 # clk $end
$var wire 8 V pc_in [7:0] $end
$var wire 1 / rst_n $end
$var wire 1 + we $end
$var reg 8 W pc_out [7:0] $end
$upscope $end
$scope module imem0 $end
$var wire 8 X pc [7:0] $end
$var reg 11 Y op [10:0] $end
$upscope $end
$scope module zf0 $end
$var wire 1 # clk $end
$var wire 1 / rst_n $end
$var wire 1 6 zf_in $end
$var reg 1 Z zf_out $end
$upscope $end
$scope module dec1 $end
$var wire 11 [ op [10:0] $end
$var wire 1 7 zf $end
$var reg 3 \ alu_op [2:0] $end
$var reg 45 ] data [44:0] $end
$var reg 6 ^ dst [5:0] $end
$var reg 1 _ mem_we $end
$var reg 8 ` pc_in [7:0] $end
$var reg 1 a pc_we $end
$var reg 1 b reg_we $end
$var reg 1 c sel1 $end
$var reg 1 d sel2 $end
$var reg 6 e src0 [5:0] $end
$var reg 6 f src1 [5:0] $end
$upscope $end
$upscope $end
$upscope $end
$enddefinitions $end
#0
$dumpvars
bx f
bx e
xd
xc
xb
xa
bx `
x_
bx ^
bx ]
bx \
bx [
xZ
bx Y
bx X
bx W
bx V
bx U
bz T
bz S
bz R
bz Q
bz P
bz O
bz N
bz M
bx L
bx K
xJ
bx I
bx H
bx G
bx F
bx E
bx D
bx C
bx B
bx A
bx @
bz ?
bz >
bx =
bx <
bx ;
bx :
bx 9
bx 8
x7
x6
bx 5
bx 4
bx 3
x2
bx 1
x0
0/
x.
bx -
bx ,
x+
bx *
bx )
bx (
x'
bx &
bx %
bx $
0#
bx "
bx !
$end
#50
1J
16
b1010011100101 1
b1010011100101 :
b1010011100101 F
b1010011100101 K
0_
0'
b0 ]
b0 $
b0 8
0d
02
1c
10
0b
0.
b0 `
b0 )
b0 V
b0 e
b1010011100101 ,
b1010011100101 9
b1010011100101 B
b0 4
b0 D
b111100 f
b1011100010101 -
b1011100010101 C
b1011100010101 G
b111100 5
b111100 E
b0 ^
b0 %
b0 A
b0 \
b0 !
b0 H
b0 Y
b0 (
b0 [
0a
0+
b0 >
b1011100010101 ?
b0 W
b0 *
b0 X
0Z
07
b11101110001011010100101110000101000000000000 T
b100001110001011010100101110000111010000000000 S
b1001110000100000000000000000000000000000000 R
b100001110001011010001111010000111010000000000 Q
b100001011010010101101010010111000010100000000 P
b11001010110100011110100001010000000000000000 O
b11001010110101001011100001010000000000000000 N
b0 M
1#
#100
0#
1/
#150
1a
1+
b100 `
b100 )
b100 V
b0 f
b1010011100101 -
b1010011100101 C
b1010011100101 G
b0 5
b0 E
b11 \
b11 !
b11 H
b1100000100 Y
b1100000100 (
b1100000100 [
1Z
17
b1 W
b1 *
b1 X
1#
#200
0#
#250
0J
06
b1011100010101 1
b1011100010101 :
b1011100010101 F
b1011100010101 K
0a
0+
b0 `
b0 )
b0 V
b1 e
b1011100010101 ,
b1011100010101 9
b1011100010101 B
b1 4
b1 D
b111100 f
b1011100010101 -
b1011100010101 C
b1011100010101 G
b111100 5
b111100 E
b0 \
b0 !
b0 H
b100 Y
b100 (
b100 [
b100 W
b100 *
b100 X
1#
#300
0#
#350
b1010011100101 1
b1010011100101 :
b1010011100101 F
b1010011100101 K
b1000 `
b1000 )
b1000 V
b0 e
b1010011100101 ,
b1010011100101 9
b1010011100101 B
b0 4
b0 D
b0 f
b1010011100101 -
b1010011100101 C
b1010011100101 G
b0 5
b0 E
b11 \
b11 !
b11 H
b1100001000 Y
b1100001000 (
b1100001000 [
0Z
07
b101 W
b101 *
b101 X
1#
#400
0#
#450
b1 I
b1 "
b1 ;
b1 L
b11001010110101001011100001010000000000000000 3
b11001010110101001011100001010000000000000000 =
b11001010110101001011100001010000000000000000 @
b11001010110101001011100001010000000000000000 &
b11001010110101001011100001010000000000000000 <
b11001010110101001011100001010000000000000000 U
b1 1
b1 :
b1 F
b1 K
b1 ]
b1 $
b1 8
1d
12
0c
00
1b
1.
b0 `
b0 )
b0 V
b111101 ^
b111101 %
b111101 A
b1 \
b1 !
b1 H
b100000100 Y
b100000100 (
b100000100 [
b110 W
b110 *
b110 X
1#
#500
0#
#550
b1 3
b1 =
b1 @
bx &
bx <
bx U
b1010011100101 1
b1010011100101 :
b1010011100101 F
b1010011100101 K
b0 ]
b0 $
b0 8
0d
02
1c
10
0b
0.
1a
1+
b11101111 `
b11101111 )
b11101111 V
b0 ^
b0 %
b0 A
b10 \
b10 !
b10 H
b1011101111 Y
b1011101111 (
b1011101111 [
b111 W
b111 *
b111 X
b11001010110101001011100001010000000000000000 >
1#
#600
0#
#650
b1011101111 Y
b11101111 W
b11101111 *
b11101111 X
1#
