top_test.vcd
$date
	Fri Apr  7 11:19:57 2017
$end
$version
	Icarus Verilog
$end
$timescale
	1ps
$end
$scope module test $end
$scope module top0 $end
$var wire 8 ! alu_op [7:0] $end
$var wire 28 " alu_out [27:0] $end
$var wire 1 # clk $end
$var wire 28 $ dec_data [27:0] $end
$var wire 4 % dst [3:0] $end
$var wire 28 & mem_data [27:0] $end
$var wire 1 ' mem_we $end
$var wire 44 ( op [43:0] $end
$var wire 12 ) pc_in [11:0] $end
$var wire 12 * pc_out [11:0] $end
$var wire 1 + pc_we $end
$var wire 28 , reg_data0 [27:0] $end
$var wire 28 - reg_data1 [27:0] $end
$var wire 1 . reg_we $end
$var wire 1 / rst_n $end
$var wire 1 0 sel1 $end
$var wire 28 1 sel1_out [27:0] $end
$var wire 1 2 sel2 $end
$var wire 28 3 sel2_out [27:0] $end
$var wire 4 4 src0 [3:0] $end
$var wire 4 5 src1 [3:0] $end
$var wire 1 6 zf $end
$var wire 1 7 zf_out $end
$scope module sl $end
$var wire 28 8 in0 [27:0] $end
$var wire 28 9 in1 [27:0] $end
$var wire 28 : out [27:0] $end
$var wire 1 0 sel $end
$upscope $end
$scope module s2 $end
$var wire 28 ; in0 [27:0] $end
$var wire 28 < in1 [27:0] $end
$var wire 28 = out [27:0] $end
$var wire 1 2 sel $end
$upscope $end
$scope module r0 $end
$var wire 28 > COUNT [27:0] $end
$var wire 28 ? FINDING [27:0] $end
$var wire 28 @ NEXT [27:0] $end
$var wire 28 A NOW [27:0] $end
$var wire 1 # clk $end
$var wire 28 B data [27:0] $end
$var wire 4 C dst [3:0] $end
$var wire 28 D outa [27:0] $end
$var wire 28 E outb [27:0] $end
$var wire 1 / rst_n $end
$var wire 4 F src0 [3:0] $end
$var wire 4 G src1 [3:0] $end
$var wire 1 . we $end
$upscope $end
$scope module a0 $end
$var wire 28 H in0 [27:0] $end
$var wire 28 I in1 [27:0] $end
$var wire 8 J op [7:0] $end
$var reg 28 K out [27:0] $end
$var reg 1 L zf $end
$upscope $end
$scope module mem0 $end
$var wire 28 M addr [27:0] $end
$var wire 1 # clk $end
$var wire 28 N in [27:0] $end
$var wire 28 O mem0 [27:0] $end
$var wire 28 P mem1 [27:0] $end
$var wire 28 Q mem2 [27:0] $end
$var wire 28 R mem3 [27:0] $end
$var wire 28 S mem4 [27:0] $end
$var wire 28 T mem5 [27:0] $end
$var wire 28 U mem6 [27:0] $end
$var wire 28 V mem7 [27:0] $end
$var wire 28 W out [27:0] $end
$var wire 1 / rst_n $end
$var wire 1 ' we $end
$var integer 32 X i [31:0] $end
$upscope $end
$scope module pc0 $end
$var wire 1 # clk $end
$var wire 12 Y pc_in [11:0] $end
$var wire 1 / rst_n $end
$var wire 1 + we $end
$var reg 12 Z pc_out [11:0] $end
$upscope $end
$scope module imem0 $end
$var wire 12 [ pc [11:0] $end
$var reg 44 \ op [43:0] $end
$upscope $end
$scope module zf0 $end
$var wire 1 # clk $end
$var wire 1 / rst_n $end
$var wire 1 6 zf_in $end
$var reg 1 ] zf_out $end
$upscope $end
$scope module dec1 $end
$var wire 44 ^ op [43:0] $end
$var wire 1 7 zf $end
$var reg 8 _ alu_op [7:0] $end
$var reg 28 ` data [27:0] $end
$var reg 4 a dst [3:0] $end
$var reg 1 b mem_we $end
$var reg 12 c pc_in [11:0] $end
$var reg 1 d pc_we $end
$var reg 1 e reg_we $end
$var reg 1 f sel1 $end
$var reg 1 g sel2 $end
$var reg 4 h src0 [3:0] $end
$var reg 4 i src1 [3:0] $end
$upscope $end
$upscope $end
$upscope $end
$enddefinitions $end
#0
$dumpvars
bx i
bx h
xg
xf
xe
xd
bx c
xb
bx a
bx `
bx _
bx ^
x]
bx \
bx [
bx Z
bx Y
bx X
bx W
bz V
bz U
bz T
bz S
bz R
bz Q
bz P
bz O
bx N
bx M
xL
bx K
bx J
bx I
bx H
bx G
bx F
bx E
bx D
bx C
bx B
bz A
bz @
bz ?
bz >
bx =
bx <
bx ;
bx :
bx 9
bx 8
x7
x6
bx 5
bx 4
bx 3
x2
bx 1
x0
0/
x.
bx -
bx ,
x+
bx *
bx )
bx (
x'
bx &
bx %
bx $
0#
bx "
bx !
$end
#50
b110 3
b110 =
b110 B
b110 K
b110 "
b110 ;
b110 N
0L
06
b1 1
b1 :
b1 H
0b
0'
b1 `
b1 $
b1 8
0g
02
0f
00
1e
1.
b0 c
b0 )
b0 Y
b0 h
b1111011001011001111010111011 ,
b1111011001011001111010111011 9
b1111011001011001111010111011 D
b0 4
b0 F
b0 i
b1111011001011001111010111011 -
b1111011001011001111010111011 E
b1111011001011001111010111011 I
b1111011001011001111010111011 M
b0 5
b0 G
b11 a
b11 %
b11 C
b1101 _
b1101 !
b1101 J
b1101000000000000001000000000000000000000 \
b1101000000000000001000000000000000000000 (
b1101000000000000001000000000000000000000 ^
0d
0+
b0 @
b0 ?
b0 >
b1111011001011001111010111011 A
b0 Z
b0 *
b0 [
0]
07
b0 V
b0 U
b0 T
b0 S
b0 R
b0 Q
b0 P
b0 O
b100000001 X
1#
#100
0#
1/
#150
b101 1
b101 :
b101 H
b101 `
b101 $
b101 8
0e
0.
b11 i
b0 &
b0 <
b0 W
b110 -
b110 E
b110 I
b110 M
b11 5
b11 G
b0 a
b0 %
b0 C
b111 _
b111 !
b111 J
b111000000110000000000000000000000000101 \
b111000000110000000000000000000000000101 (
b111000000110000000000000000000000000101 ^
b1 Z
b1 *
b1 [
b110 ?
1#
#200
0#
#250
b1111011001011001111010111011 1
b1111011001011001111010111011 :
b1111011001011001111010111011 H
b0 `
b0 $
b0 8
1f
10
b10110 c
b10110 )
b10110 Y
b0 i
bx &
bx <
bx W
b1111011001011001111010111011 -
b1111011001011001111010111011 E
b1111011001011001111010111011 I
b1111011001011001111010111011 M
b0 5
b0 G
b1100 _
b1100 !
b1100 J
b1100000000000000000000000000000000010110 \
b1100000000000000000000000000000000010110 (
b1100000000000000000000000000000000010110 ^
b10 Z
b10 *
b10 [
1#
#300
0#
#350
b10 3
b10 =
b10 B
b10 K
b10 "
b10 ;
b10 N
1e
1.
b0 c
b0 )
b0 Y
b100 a
b100 %
b100 C
b10011 _
b10011 !
b10011 J
b10011000000000000000000000000000000000000 \
b10011000000000000000000000000000000000000 (
b10011000000000000000000000000000000000000 ^
b11 Z
b11 *
b11 [
1#
#400
0#
#450
1L
16
b1 1
b1 :
b1 H
b1 `
b1 $
b1 8
0f
00
0e
0.
b100 i
b0 &
b0 <
b0 W
b10 -
b10 E
b10 I
b10 M
b100 5
b100 G
b0 a
b0 %
b0 C
b1110 _
b1110 !
b1110 J
b1110000001000000000000000000000000000001 \
b1110000001000000000000000000000000000001 (
b1110000001000000000000000000000000000001 ^
b10 @
b100 Z
b100 *
b100 [
1#
#500
0#
#550
b1111011001011001111010111011 1
b1111011001011001111010111011 :
b1111011001011001111010111011 H
b0 `
b0 $
b0 8
1f
10
1d
1+
b1001 c
b1001 )
b1001 Y
b0 i
bx &
bx <
bx W
b1111011001011001111010111011 -
b1111011001011001111010111011 E
b1111011001011001111010111011 I
b1111011001011001111010111011 M
b0 5
b0 G
b1100 _
b1100 !
b1100 J
b1100000000000000000000000000000000001001 \
b1100000000000000000000000000000000001001 (
b1100000000000000000000000000000000001001 ^
1]
17
b101 Z
b101 *
b101 [
1#
#600
0#
#650
0L
06
b10 1
b10 :
b10 H
b10 `
b10 $
b10 8
0f
00
0d
0+
b0 c
b0 )
b0 Y
b100 i
b0 &
b0 <
b0 W
b10 -
b10 E
b10 I
b10 M
b100 5
b100 G
b1110 _
b1110 !
b1110 J
b1110000001000000000000000000000000000010 \
b1110000001000000000000000000000000000010 (
b1110000001000000000000000000000000000010 ^
b1001 Z
b1001 *
b1001 [
1#
#700
0#
#750
b1111011001011001111010111011 1
b1111011001011001111010111011 :
b1111011001011001111010111011 H
b0 `
b0 $
b0 8
1f
10
b1110 c
b1110 )
b1110 Y
b0 i
bx &
bx <
bx W
b1111011001011001111010111011 -
b1111011001011001111010111011 E
b1111011001011001111010111011 I
b1111011001011001111010111011 M
b0 5
b0 G
b1100 _
b1100 !
b1100 J
b1100000000000000000000000000000000001110 \
b1100000000000000000000000000000000001110 (
b1100000000000000000000000000000000001110 ^
0]
07
b1010 Z
b1010 *
b1010 [
1#
#800
0#
#850
b1110011001011001111110111011 3
b1110011001011001111110111011 =
b1110011001011001111110111011 B
b1110011001011001111110111011 K
b1110011001011001111110111011 "
b1110011001011001111110111011 ;
b1110011001011001111110111011 N
1e
1.
b0 c
b0 )
b0 Y
b10000 _
b10000 !
b10000 J
b10000000000000000000000000000000000000000 \
b10000000000000000000000000000000000000000 (
b10000000000000000000000000000000000000000 ^
b1011 Z
b1011 *
b1011 [
1#
#900
0#
#950
b10 i
b0 &
b0 <
b0 W
b10 5
b10 G
b10 a
b10 %
b10 C
b100 _
b100 !
b100 J
b1 3
b1 =
b1 B
b100001000000000000000000000000000000000 \
b100001000000000000000000000000000000000 (
b100001000000000000000000000000000000000 ^
b1 K
b1 "
b1 ;
b1 N
b1110011001011001111110111011 1
b1110011001011001111110111011 :
b1110011001011001111110111011 H
b1100 Z
b1100 *
b1100 [
b1110011001011001111110111011 ,
b1110011001011001111110111011 9
b1110011001011001111110111011 D
b0 -
b0 E
b0 I
b0 M
b1110011001011001111110111011 A
1#
#1000
0#
#1050
0e
0.
1d
1+
b0 i
bx &
bx <
bx W
b0 5
b0 G
b0 a
b0 %
b0 C
b1011 _
b1011 !
b1011 J
b10 3
b10 =
b10 B
b10 K
b10 "
b10 ;
b10 N
b1011000000000000000000000000000000000000 \
b1011000000000000000000000000000000000000 (
b1011000000000000000000000000000000000000 ^
b1110011001011001111110111011 -
b1110011001011001111110111011 E
b1110011001011001111110111011 I
b1110011001011001111110111011 M
b1 >
b1101 Z
b1101 *
b1101 [
1#
#1100
0#
#1150
b110 3
b110 =
b110 B
b110 K
b110 "
b110 ;
b110 N
b1 1
b1 :
b1 H
b1 `
b1 $
b1 8
0f
00
1e
1.
0d
0+
b11 a
b11 %
b11 C
b1101 _
b1101 !
b1101 J
b1101000000000000001000000000000000000000 \
b1101000000000000001000000000000000000000 (
b1101000000000000001000000000000000000000 ^
b0 Z
b0 *
b0 [
1#
#1200
0#
#1250
b101 1
b101 :
b101 H
b101 `
b101 $
b101 8
0e
0.
b11 i
b0 &
b0 <
b0 W
b110 -
b110 E
b110 I
b110 M
b11 5
b11 G
b0 a
b0 %
b0 C
b111 _
b111 !
b111 J
b111000000110000000000000000000000000101 \
b111000000110000000000000000000000000101 (
b111000000110000000000000000000000000101 ^
b1 Z
b1 *
b1 [
1#
#1300
0#
#1350
b1110011001011001111110111011 1
b1110011001011001111110111011 :
b1110011001011001111110111011 H
b0 `
b0 $
b0 8
1f
10
b10110 c
b10110 )
b10110 Y
b0 i
bx &
bx <
bx W
b1110011001011001111110111011 -
b1110011001011001111110111011 E
b1110011001011001111110111011 I
b1110011001011001111110111011 M
b0 5
b0 G
b1100 _
b1100 !
b1100 J
b1100000000000000000000000000000000010110 \
b1100000000000000000000000000000000010110 (
b1100000000000000000000000000000000010110 ^
b10 Z
b10 *
b10 [
1#
#1400
0#
#1450
b10 3
b10 =
b10 B
b10 K
b10 "
b10 ;
b10 N
1e
1.
b0 c
b0 )
b0 Y
b100 a
b100 %
b100 C
b10011 _
b10011 !
b10011 J
b10011000000000000000000000000000000000000 \
b10011000000000000000000000000000000000000 (
b10011000000000000000000000000000000000000 ^
b11 Z
b11 *
b11 [
1#
#1500
0#
#1550
1L
16
b1 1
b1 :
b1 H
b1 `
b1 $
b1 8
0f
00
0e
0.
b100 i
b0 &
b0 <
b0 W
b10 -
b10 E
b10 I
b10 M
b100 5
b100 G
b0 a
b0 %
b0 C
b1110 _
b1110 !
b1110 J
b1110000001000000000000000000000000000001 \
b1110000001000000000000000000000000000001 (
b1110000001000000000000000000000000000001 ^
b100 Z
b100 *
b100 [
1#
#1600
0#
#1650
b1110011001011001111110111011 1
b1110011001011001111110111011 :
b1110011001011001111110111011 H
b0 `
b0 $
b0 8
1f
10
1d
1+
b1001 c
b1001 )
b1001 Y
b0 i
bx &
bx <
bx W
b1110011001011001111110111011 -
b1110011001011001111110111011 E
b1110011001011001111110111011 I
b1110011001011001111110111011 M
b0 5
b0 G
b1100 _
b1100 !
b1100 J
b1100000000000000000000000000000000001001 \
b1100000000000000000000000000000000001001 (
b1100000000000000000000000000000000001001 ^
b101 Z
b101 *
b101 [
1]
17
1#
#1700
0#
#1750
0L
06
b10 1
b10 :
b10 H
b10 `
b10 $
b10 8
0f
00
0d
0+
b0 c
b0 )
b0 Y
b100 i
b0 &
b0 <
b0 W
b10 -
b10 E
b10 I
b10 M
b100 5
b100 G
b1110 _
b1110 !
b1110 J
b1110000001000000000000000000000000000010 \
b1110000001000000000000000000000000000010 (
b1110000001000000000000000000000000000010 ^
b1001 Z
b1001 *
b1001 [
1#
#1800
0#
#1850
b1110011001011001111110111011 1
b1110011001011001111110111011 :
b1110011001011001111110111011 H
b0 `
b0 $
b0 8
1f
10
b1110 c
b1110 )
b1110 Y
b0 i
bx &
bx <
bx W
b1110011001011001111110111011 -
b1110011001011001111110111011 E
b1110011001011001111110111011 I
b1110011001011001111110111011 M
b0 5
b0 G
b1100 _
b1100 !
b1100 J
b1100000000000000000000000000000000001110 \
b1100000000000000000000000000000000001110 (
b1100000000000000000000000000000000001110 ^
b1010 Z
b1010 *
b1010 [
0]
07
1#
#1900
0#
#1950
b1101011001011001111110111011 3
b1101011001011001111110111011 =
b1101011001011001111110111011 B
b1101011001011001111110111011 K
b1101011001011001111110111011 "
b1101011001011001111110111011 ;
b1101011001011001111110111011 N
1e
1.
b0 c
b0 )
b0 Y
b10000 _
b10000 !
b10000 J
b10000000000000000000000000000000000000000 \
b10000000000000000000000000000000000000000 (
b10000000000000000000000000000000000000000 ^
b1011 Z
b1011 *
b1011 [
1#
#2000
0#
#2050
b10 i
b0 &
b0 <
b0 W
b10 5
b10 G
b10 a
b10 %
b10 C
b100 _
b100 !
b100 J
b10 3
b10 =
b10 B
b10 K
b10 "
b10 ;
b10 N
b100001000000000000000000000000000000000 \
b100001000000000000000000000000000000000 (
b100001000000000000000000000000000000000 ^
b1101011001011001111110111011 1
b1101011001011001111110111011 :
b1101011001011001111110111011 H
b1101011001011001111110111011 ,
b1101011001011001111110111011 9
b1101011001011001111110111011 D
b1 -
b1 E
b1 I
b1 M
b1101011001011001111110111011 A
b1100 Z
b1100 *
b1100 [
1#
#2100
0#
#2150
0e
0.
1d
1+
b0 i
bx &
bx <
bx W
b0 5
b0 G
b0 a
b0 %
b0 C
b1011 _
b1011 !
b1011 J
b11 3
b11 =
b11 B
b1011000000000000000000000000000000000000 \
b1011000000000000000000000000000000000000 (
b1011000000000000000000000000000000000000 ^
b11 K
b11 "
b11 ;
b11 N
b1101 Z
b1101 *
b1101 [
b1101011001011001111110111011 -
b1101011001011001111110111011 E
b1101011001011001111110111011 I
b1101011001011001111110111011 M
b10 >
1#
#2200
0#
#2250
b110 3
b110 =
b110 B
b110 K
b110 "
b110 ;
b110 N
b1 1
b1 :
b1 H
b1 `
b1 $
b1 8
0f
00
1e
1.
0d
0+
b11 a
b11 %
b11 C
b1101 _
b1101 !
b1101 J
b1101000000000000001000000000000000000000 \
b1101000000000000001000000000000000000000 (
b1101000000000000001000000000000000000000 ^
b0 Z
b0 *
b0 [
1#
#2300
0#
#2350
b101 1
b101 :
b101 H
b101 `
b101 $
b101 8
0e
0.
b11 i
b0 &
b0 <
b0 W
b110 -
b110 E
b110 I
b110 M
b11 5
b11 G
b0 a
b0 %
b0 C
b111 _
b111 !
b111 J
b111000000110000000000000000000000000101 \
b111000000110000000000000000000000000101 (
b111000000110000000000000000000000000101 ^
b1 Z
b1 *
b1 [
1#
#2400
0#
#2450
b1101011001011001111110111011 1
b1101011001011001111110111011 :
b1101011001011001111110111011 H
b0 `
b0 $
b0 8
1f
10
b10110 c
b10110 )
b10110 Y
b0 i
bx &
bx <
bx W
b1101011001011001111110111011 -
b1101011001011001111110111011 E
b1101011001011001111110111011 I
b1101011001011001111110111011 M
b0 5
b0 G
b1100 _
b1100 !
b1100 J
b1100000000000000000000000000000000010110 \
b1100000000000000000000000000000000010110 (
b1100000000000000000000000000000000010110 ^
b10 Z
b10 *
b10 [
1#
#2500
0#
#2550
b11 3
b11 =
b11 B
b11 K
b11 "
b11 ;
b11 N
1e
1.
b0 c
b0 )
b0 Y
b100 a
b100 %
b100 C
b10011 _
b10011 !
b10011 J
b10011000000000000000000000000000000000000 \
b10011000000000000000000000000000000000000 (
b10011000000000000000000000000000000000000 ^
b11 Z
b11 *
b11 [
1#
#2600
0#
#2650
1L
16
b1 1
b1 :
b1 H
b1 `
b1 $
b1 8
0f
00
0e
0.
b100 i
b0 &
b0 <
b0 W
b11 -
b11 E
b11 I
b11 M
b100 5
b100 G
b0 a
b0 %
b0 C
b1110 _
b1110 !
b1110 J
b1110000001000000000000000000000000000001 \
b1110000001000000000000000000000000000001 (
b1110000001000000000000000000000000000001 ^
b11 @
b100 Z
b100 *
b100 [
1#
#2700
0#
#2750
b1101011001011001111110111011 1
b1101011001011001111110111011 :
b1101011001011001111110111011 H
b0 `
b0 $
b0 8
1f
10
1d
1+
b1001 c
b1001 )
b1001 Y
b0 i
bx &
bx <
bx W
b1101011001011001111110111011 -
b1101011001011001111110111011 E
b1101011001011001111110111011 I
b1101011001011001111110111011 M
b0 5
b0 G
b1100 _
b1100 !
b1100 J
b1100000000000000000000000000000000001001 \
b1100000000000000000000000000000000001001 (
b1100000000000000000000000000000000001001 ^
1]
17
b101 Z
b101 *
b101 [
1#
#2800
0#
#2850
b10 1
b10 :
b10 H
b10 `
b10 $
b10 8
0f
00
0d
0+
b0 c
b0 )
b0 Y
b100 i
b0 &
b0 <
b0 W
b11 -
b11 E
b11 I
b11 M
b100 5
b100 G
b1110 _
b1110 !
b1110 J
b1110000001000000000000000000000000000010 \
b1110000001000000000000000000000000000010 (
b1110000001000000000000000000000000000010 ^
b1001 Z
b1001 *
b1001 [
1#
#2900
0#
#2950
b1101011001011001111110111011 1
b1101011001011001111110111011 :
b1101011001011001111110111011 H
b0 `
b0 $
b0 8
1f
10
1d
1+
b1110 c
b1110 )
b1110 Y
b0 i
bx &
bx <
bx W
b1101011001011001111110111011 -
b1101011001011001111110111011 E
b1101011001011001111110111011 I
b1101011001011001111110111011 M
b0 5
b0 G
b1100 _
b1100 !
b1100 J
b1100000000000000000000000000000000001110 \
b1100000000000000000000000000000000001110 (
b1100000000000000000000000000000000001110 ^
b1010 Z
b1010 *
b1010 [
1#
#3000
0#
#3050
0L
06
b11 1
b11 :
b11 H
b11 `
b11 $
b11 8
0f
00
0d
0+
b0 c
b0 )
b0 Y
b100 i
b0 &
b0 <
b0 W
b11 -
b11 E
b11 I
b11 M
b100 5
b100 G
b1110 _
b1110 !
b1110 J
b1110000001000000000000000000000000000011 \
b1110000001000000000000000000000000000011 (
b1110000001000000000000000000000000000011 ^
b1110 Z
b1110 *
b1110 [
1#
#3100
0#
#3150
b1101011001011001111110111011 1
b1101011001011001111110111011 :
b1101011001011001111110111011 H
b0 `
b0 $
b0 8
1f
10
b10011 c
b10011 )
b10011 Y
b0 i
bx &
bx <
bx W
b1101011001011001111110111011 -
b1101011001011001111110111011 E
b1101011001011001111110111011 I
b1101011001011001111110111011 M
b0 5
b0 G
b1100 _
b1100 !
b1100 J
b1100000000000000000000000000000000010011 \
b1100000000000000000000000000000000010011 (
b1100000000000000000000000000000000010011 ^
0]
07
b1111 Z
b1111 *
b1111 [
1#
#3200
0#
#3250
b1001011001011101111110111011 3
b1001011001011101111110111011 =
b1001011001011101111110111011 B
b1001011001011101111110111011 K
b1001011001011101111110111011 "
b1001011001011101111110111011 ;
b1001011001011101111110111011 N
1e
1.
b0 c
b0 )
b0 Y
b10001 _
b10001 !
b10001 J
b10001000000000000000000000000000000000000 \
b10001000000000000000000000000000000000000 (
b10001000000000000000000000000000000000000 ^
b10000 Z
b10000 *
b10000 [
1#
#3300
0#
#3350
b10 i
b0 &
b0 <
b0 W
b10 5
b10 G
b10 a
b10 %
b10 C
b100 _
b100 !
b100 J
b11 3
b11 =
b11 B
b100001000000000000000000000000000000000 \
b100001000000000000000000000000000000000 (
b100001000000000000000000000000000000000 ^
b11 K
b11 "
b11 ;
b11 N
b1001011001011101111110111011 1
b1001011001011101111110111011 :
b1001011001011101111110111011 H
b10001 Z
b10001 *
b10001 [
b1001011001011101111110111011 ,
b1001011001011101111110111011 9
b1001011001011101111110111011 D
b10 -
b10 E
b10 I
b10 M
b1001011001011101111110111011 A
1#
#3400
0#
#3450
0e
0.
1d
1+
b0 i
bx &
bx <
bx W
b0 5
b0 G
b0 a
b0 %
b0 C
b1011 _
b1011 !
b1011 J
b100 3
b100 =
b100 B
b100 K
b100 "
b100 ;
b100 N
b1011000000000000000000000000000000000000 \
b1011000000000000000000000000000000000000 (
b1011000000000000000000000000000000000000 ^
b1001011001011101111110111011 -
b1001011001011101111110111011 E
b1001011001011101111110111011 I
b1001011001011101111110111011 M
b11 >
b10010 Z
b10010 *
b10010 [
1#
#3500
0#
#3550
b110 3
b110 =
b110 B
b110 K
b110 "
b110 ;
b110 N
b1 1
b1 :
b1 H
b1 `
b1 $
b1 8
0f
00
1e
1.
0d
0+
b11 a
b11 %
b11 C
b1101 _
b1101 !
b1101 J
b1101000000000000001000000000000000000000 \
b1101000000000000001000000000000000000000 (
b1101000000000000001000000000000000000000 ^
b0 Z
b0 *
b0 [
1#
#3600
0#
#3650
b101 1
b101 :
b101 H
b101 `
b101 $
b101 8
0e
0.
b11 i
b0 &
b0 <
b0 W
b110 -
b110 E
b110 I
b110 M
b11 5
b11 G
b0 a
b0 %
b0 C
b111 _
b111 !
b111 J
b111000000110000000000000000000000000101 \
b111000000110000000000000000000000000101 (
b111000000110000000000000000000000000101 ^
b1 Z
b1 *
b1 [
1#
#3700
0#
#3750
b1001011001011101111110111011 1
b1001011001011101111110111011 :
b1001011001011101111110111011 H
b0 `
b0 $
b0 8
1f
10
b10110 c
b10110 )
b10110 Y
b0 i
bx &
bx <
bx W
b1001011001011101111110111011 -
b1001011001011101111110111011 E
b1001011001011101111110111011 I
b1001011001011101111110111011 M
b0 5
b0 G
b1100 _
b1100 !
b1100 J
b1100000000000000000000000000000000010110 \
b1100000000000000000000000000000000010110 (
b1100000000000000000000000000000000010110 ^
b10 Z
b10 *
b10 [
1#
#3800
0#
#3850
b11 3
b11 =
b11 B
b11 K
b11 "
b11 ;
b11 N
1e
1.
b0 c
b0 )
b0 Y
b100 a
b100 %
b100 C
b10011 _
b10011 !
b10011 J
b10011000000000000000000000000000000000000 \
b10011000000000000000000000000000000000000 (
b10011000000000000000000000000000000000000 ^
b11 Z
b11 *
b11 [
1#
#3900
0#
#3950
1L
16
b1 1
b1 :
b1 H
b1 `
b1 $
b1 8
0f
00
0e
0.
b100 i
b0 &
b0 <
b0 W
b11 -
b11 E
b11 I
b11 M
b100 5
b100 G
b0 a
b0 %
b0 C
b1110 _
b1110 !
b1110 J
b1110000001000000000000000000000000000001 \
b1110000001000000000000000000000000000001 (
b1110000001000000000000000000000000000001 ^
b100 Z
b100 *
b100 [
1#
#4000
0#
#4050
b1001011001011101111110111011 1
b1001011001011101111110111011 :
b1001011001011101111110111011 H
b0 `
b0 $
b0 8
1f
10
1d
1+
b1001 c
b1001 )
b1001 Y
b0 i
bx &
bx <
bx W
b1001011001011101111110111011 -
b1001011001011101111110111011 E
b1001011001011101111110111011 I
b1001011001011101111110111011 M
b0 5
b0 G
b1100 _
b1100 !
b1100 J
b1100000000000000000000000000000000001001 \
b1100000000000000000000000000000000001001 (
b1100000000000000000000000000000000001001 ^
b101 Z
b101 *
b101 [
1]
17
1#
#4100
0#
#4150
b10 1
b10 :
b10 H
b10 `
b10 $
b10 8
0f
00
0d
0+
b0 c
b0 )
b0 Y
b100 i
b0 &
b0 <
b0 W
b11 -
b11 E
b11 I
b11 M
b100 5
b100 G
b1110 _
b1110 !
b1110 J
b1110000001000000000000000000000000000010 \
b1110000001000000000000000000000000000010 (
b1110000001000000000000000000000000000010 ^
b1001 Z
b1001 *
b1001 [
1#
#4200
0#
#4250
b1001011001011101111110111011 1
b1001011001011101111110111011 :
b1001011001011101111110111011 H
b0 `
b0 $
b0 8
1f
10
1d
1+
b1110 c
b1110 )
b1110 Y
b0 i
bx &
bx <
bx W
b1001011001011101111110111011 -
b1001011001011101111110111011 E
b1001011001011101111110111011 I
b1001011001011101111110111011 M
b0 5
b0 G
b1100 _
b1100 !
b1100 J
b1100000000000000000000000000000000001110 \
b1100000000000000000000000000000000001110 (
b1100000000000000000000000000000000001110 ^
b1010 Z
b1010 *
b1010 [
1#
#4300
0#
#4350
0L
06
b11 1
b11 :
b11 H
b11 `
b11 $
b11 8
0f
00
0d
0+
b0 c
b0 )
b0 Y
b100 i
b0 &
b0 <
b0 W
b11 -
b11 E
b11 I
b11 M
b100 5
b100 G
b1110 _
b1110 !
b1110 J
b1110000001000000000000000000000000000011 \
b1110000001000000000000000000000000000011 (
b1110000001000000000000000000000000000011 ^
b1110 Z
b1110 *
b1110 [
1#
#4400
0#
#4450
b1001011001011101111110111011 1
b1001011001011101111110111011 :
b1001011001011101111110111011 H
b0 `
b0 $
b0 8
1f
10
b10011 c
b10011 )
b10011 Y
b0 i
bx &
bx <
bx W
b1001011001011101111110111011 -
b1001011001011101111110111011 E
b1001011001011101111110111011 I
b1001011001011101111110111011 M
b0 5
b0 G
b1100 _
b1100 !
b1100 J
b1100000000000000000000000000000000010011 \
b1100000000000000000000000000000000010011 (
b1100000000000000000000000000000000010011 ^
b1111 Z
b1111 *
b1111 [
0]
07
1#
#4500
0#
#4550
b101011010011101111110111011 3
b101011010011101111110111011 =
b101011010011101111110111011 B
b101011010011101111110111011 K
b101011010011101111110111011 "
b101011010011101111110111011 ;
b101011010011101111110111011 N
1e
1.
b0 c
b0 )
b0 Y
b10001 _
b10001 !
b10001 J
b10001000000000000000000000000000000000000 \
b10001000000000000000000000000000000000000 (
b10001000000000000000000000000000000000000 ^
b10000 Z
b10000 *
b10000 [
1#
#4600
0#
#4650
b10 i
b0 &
b0 <
b0 W
b10 5
b10 G
b10 a
b10 %
b10 C
b100 _
b100 !
b100 J
b100 3
b100 =
b100 B
b100 K
b100 "
b100 ;
b100 N
b100001000000000000000000000000000000000 \
b100001000000000000000000000000000000000 (
b100001000000000000000000000000000000000 ^
b101011010011101111110111011 1
b101011010011101111110111011 :
b101011010011101111110111011 H
b101011010011101111110111011 ,
b101011010011101111110111011 9
b101011010011101111110111011 D
b11 -
b11 E
b11 I
b11 M
b101011010011101111110111011 A
b10001 Z
b10001 *
b10001 [
1#
#4700
0#
#4750
0e
0.
1d
1+
b0 i
bx &
bx <
bx W
b0 5
b0 G
b0 a
b0 %
b0 C
b1011 _
b1011 !
b1011 J
b101 3
b101 =
b101 B
b1011000000000000000000000000000000000000 \
b1011000000000000000000000000000000000000 (
b1011000000000000000000000000000000000000 ^
b101 K
b101 "
b101 ;
b101 N
b10010 Z
b10010 *
b10010 [
b101011010011101111110111011 -
b101011010011101111110111011 E
b101011010011101111110111011 I
b101011010011101111110111011 M
b100 >
1#
#4800
0#
#4850
b110 3
b110 =
b110 B
b110 K
b110 "
b110 ;
b110 N
b1 1
b1 :
b1 H
b1 `
b1 $
b1 8
0f
00
1e
1.
0d
0+
b11 a
b11 %
b11 C
b1101 _
b1101 !
b1101 J
b1101000000000000001000000000000000000000 \
b1101000000000000001000000000000000000000 (
b1101000000000000001000000000000000000000 ^
b0 Z
b0 *
b0 [
1#
#4900
0#
#4950
b101 1
b101 :
b101 H
b101 `
b101 $
b101 8
0e
0.
b11 i
b0 &
b0 <
b0 W
b110 -
b110 E
b110 I
b110 M
b11 5
b11 G
b0 a
b0 %
b0 C
b111 _
b111 !
b111 J
b111000000110000000000000000000000000101 \
b111000000110000000000000000000000000101 (
b111000000110000000000000000000000000101 ^
b1 Z
b1 *
b1 [
1#
#5000
0#
#5050
b101011010011101111110111011 1
b101011010011101111110111011 :
b101011010011101111110111011 H
b0 `
b0 $
b0 8
1f
10
b10110 c
b10110 )
b10110 Y
b0 i
bx &
bx <
bx W
b101011010011101111110111011 -
b101011010011101111110111011 E
b101011010011101111110111011 I
b101011010011101111110111011 M
b0 5
b0 G
b1100 _
b1100 !
b1100 J
b1100000000000000000000000000000000010110 \
b1100000000000000000000000000000000010110 (
b1100000000000000000000000000000000010110 ^
b10 Z
b10 *
b10 [
1#
#5100
0#
#5150
b1 3
b1 =
b1 B
b1 K
b1 "
b1 ;
b1 N
1e
1.
b0 c
b0 )
b0 Y
b100 a
b100 %
b100 C
b10011 _
b10011 !
b10011 J
b10011000000000000000000000000000000000000 \
b10011000000000000000000000000000000000000 (
b10011000000000000000000000000000000000000 ^
b11 Z
b11 *
b11 [
1#
#5200
0#
#5250
0L
06
b1 1
b1 :
b1 H
b1 `
b1 $
b1 8
0f
00
0e
0.
b100 i
b0 &
b0 <
b0 W
b1 -
b1 E
b1 I
b1 M
b100 5
b100 G
b0 a
b0 %
b0 C
b1110 _
b1110 !
b1110 J
b1110000001000000000000000000000000000001 \
b1110000001000000000000000000000000000001 (
b1110000001000000000000000000000000000001 ^
b1 @
b100 Z
b100 *
b100 [
1#
#5300
0#
